<svg width="26" height="27" viewBox="0 0 26 27" fill="none" xmlns="http://www.w3.org/2000/svg">
<g clip-path="url(#clip0)">
<path d="M19.4837 2.2509L19.4919 2.23465C19.4106 2.1859 19.3213 2.14528 19.24 2.10465C19.1994 2.08028 19.1588 2.06403 19.1181 2.03965C18.8094 1.86903 18.4844 1.71465 18.1594 1.57653C18.1025 1.55215 18.0537 1.52778 18.005 1.5034C17.6719 1.36528 17.3388 1.2434 16.9975 1.12965C16.8594 1.0809 16.7131 1.0484 16.575 1.00778C16.3719 0.950903 16.1606 0.894028 15.9575 0.845278C15.7869 0.804653 15.6163 0.764028 15.4456 0.731528C15.1369 0.674653 14.82 0.625903 14.5031 0.585278C14.3406 0.569028 14.1781 0.552778 14.0156 0.544653C13.7475 0.520278 13.4875 0.512153 13.2194 0.504028C13.1463 0.512153 13.0731 0.504028 13 0.504028C12.9675 0.504028 12.9431 0.504028 12.9106 0.512153C12.87 0.512153 12.8294 0.512153 12.7887 0.512153C12.5938 0.512153 12.3988 0.536528 12.2038 0.552778C11.9925 0.569028 11.7812 0.569028 11.57 0.593403C11.4806 0.601528 11.3994 0.617778 11.3181 0.634028C6.02063 1.31653 1.7225 5.20028 0.4225 10.2865C0.398125 10.3678 0.381875 10.449 0.3575 10.5303C0.2925 10.7903 0.24375 11.0584 0.195 11.3265C0.1625 11.5134 0.13 11.7003 0.105625 11.8872C0.08125 12.0903 0.065 12.3015 0.04875 12.5047C0.040625 12.6265 0.01625 12.7484 0.01625 12.8703C0.008125 12.9759 0.01625 13.0815 0.01625 13.1872C0.01625 13.3009 0 13.3984 0 13.504C0 13.6178 0.01625 13.7315 0.01625 13.8453C0.024375 14.0809 0.0325 14.3165 0.04875 14.5522C0.065 14.7472 0.08125 14.9422 0.105625 15.1372C0.138125 15.389 0.17875 15.6409 0.219375 15.8928C0.251875 16.0553 0.284375 16.2097 0.316875 16.3722C0.381875 16.6484 0.446875 16.9247 0.528125 17.2009C0.560625 17.3228 0.60125 17.4447 0.641875 17.5665C0.739375 17.859 0.845 18.1515 0.966875 18.444C1.0075 18.5415 1.04813 18.6309 1.08875 18.7284C1.21875 19.029 1.35688 19.3215 1.51125 19.6059C1.56 19.6953 1.60875 19.7765 1.64937 19.8578C1.80375 20.1422 1.97438 20.4184 2.15313 20.6865C2.21 20.7759 2.28313 20.8653 2.34 20.9547C2.51875 21.2065 2.6975 21.4503 2.8925 21.694C2.97375 21.7915 3.06312 21.889 3.14437 21.9865C3.29062 22.1572 3.42062 22.3278 3.575 22.4903C3.63188 22.5472 3.68875 22.5959 3.7375 22.6447C3.81875 22.7259 3.9 22.799 3.98125 22.8803C4.21688 23.1078 4.4525 23.3272 4.69625 23.5303C4.72063 23.5547 4.745 23.5709 4.76937 23.5872C7.10938 25.4722 9.96125 26.504 13 26.504C15.21 26.504 18.5494 26.504 20.1338 24.5378C20.9137 23.579 20.5156 22.3034 20.0769 21.8647L19.1425 20.9303C19.5569 20.5972 19.9306 20.199 20.2069 19.7034C20.2638 19.5978 20.2962 19.4922 20.3125 19.3703C20.3288 19.1834 20.3206 18.9722 20.2962 18.7853C20.2069 17.8834 19.7681 16.9572 19.0856 16.2503C18.6794 15.8359 18.0294 15.2753 17.225 15.0072C17.0381 14.9422 16.4531 14.7472 15.8844 15.0234C15.73 15.0965 15.5838 15.194 15.3969 15.3159L14.6737 15.7872C14.4544 15.6572 13.8775 15.2103 12.9025 13.7072C11.9275 12.1878 11.7569 11.4809 11.7244 11.229L12.4475 10.7578C12.6344 10.6359 12.7806 10.5465 12.9025 10.4409C13.39 10.0265 13.4469 9.41715 13.4712 9.22215C13.5525 8.37715 13.3088 7.55653 13.0975 7.01215C12.7319 6.09403 12.0656 5.31403 11.2775 4.86715C11.115 4.77778 10.9281 4.68028 10.7494 4.61528C10.6356 4.57465 10.5138 4.5584 10.4 4.56653C7.36938 4.85903 5.80125 8.8809 5.74438 9.05153C5.6875 9.2059 5.67125 9.3684 5.70375 9.52278C6.39437 12.5697 8.0925 15.5272 8.65312 16.4453C8.66125 16.4697 8.6775 16.4859 8.68563 16.5103L8.8075 16.7053C8.81563 16.7215 8.83187 16.7378 8.84 16.7459C9.43313 17.6153 11.4319 20.394 13.9587 22.2872C14.0969 22.3928 14.2675 22.4497 14.4463 22.4497C14.4544 22.4497 14.4544 22.4497 14.4625 22.4497C14.5681 22.4497 16.1281 22.4009 17.6637 21.7753L18.8662 22.9697C18.9069 23.0347 19.0044 23.3434 18.8581 23.5303C17.7694 24.879 14.9012 24.879 13 24.879C10.2781 24.879 7.78375 23.9203 5.82562 22.3197C5.80125 22.3034 5.77688 22.2872 5.76062 22.2709C5.54125 22.0922 5.33813 21.8972 5.135 21.7022C5.06188 21.629 4.98875 21.564 4.91563 21.4909C4.73688 21.304 4.56625 21.1172 4.39563 20.914C4.3225 20.8247 4.24125 20.7434 4.16813 20.654C3.9975 20.4428 3.84312 20.2315 3.68875 20.0122C3.63188 19.9309 3.575 19.8578 3.51813 19.7765C3.36375 19.5409 3.2175 19.3053 3.07938 19.0534C3.03875 18.9803 2.99813 18.9072 2.9575 18.8259C2.8275 18.574 2.70563 18.3222 2.59188 18.0622C2.55125 17.9809 2.51875 17.8915 2.48625 17.8103C2.38063 17.5665 2.28312 17.3147 2.20187 17.0547C2.16937 16.949 2.12875 16.8434 2.09625 16.7297C2.02312 16.494 1.96625 16.2503 1.90937 16.0147C1.87687 15.8765 1.84438 15.7303 1.82 15.5922C1.77937 15.3728 1.74687 15.1534 1.7225 14.934C1.69812 14.7634 1.68187 14.5928 1.66562 14.414C1.64937 14.2109 1.64125 14.0078 1.63312 13.8047C1.625 13.6178 1.625 13.4228 1.63312 13.2359C1.64125 13.0328 1.64937 12.8378 1.66562 12.6428C1.68187 12.4559 1.69812 12.2772 1.7225 12.0984C1.74687 11.9359 1.77125 11.7653 1.79562 11.6028C1.83625 11.3672 1.87688 11.1397 1.93375 10.9122C1.95 10.839 1.97438 10.7659 1.99063 10.6928C3.1525 6.28903 6.97937 2.84403 11.5375 2.23465C11.6106 2.22653 11.6756 2.21028 11.7487 2.20215C11.9356 2.17778 12.1225 2.17778 12.3175 2.16153C12.5206 2.14528 12.7238 2.12903 12.9269 2.12903C13 2.12903 13.0731 2.12903 13.1381 2.12903C13.4306 2.12903 13.715 2.14528 13.9994 2.16965C14.0806 2.17778 14.1619 2.17778 14.2431 2.19403C14.5681 2.22653 14.885 2.27528 15.1938 2.34028C15.2913 2.35653 15.3806 2.3809 15.47 2.40528C15.7219 2.46215 15.9656 2.52715 16.2094 2.59215C16.2906 2.61653 16.38 2.6409 16.4613 2.66528C16.7781 2.76278 17.0869 2.87653 17.3956 3.00653C17.4281 3.02278 17.4606 3.03903 17.4931 3.05528C17.7856 3.18528 18.0781 3.3234 18.3544 3.46965C18.3869 3.4859 18.4194 3.50215 18.46 3.52653C21.9781 5.46028 24.375 9.2059 24.375 13.504C24.375 15.0884 24.0581 16.6159 23.4325 18.054C23.3188 18.314 23.1969 18.5659 23.0669 18.8097C22.8556 19.2078 23.01 19.6953 23.4081 19.9065C23.8062 20.1178 24.2938 19.9634 24.505 19.5653C24.6512 19.2809 24.7975 18.9965 24.9194 18.6959C25.6344 17.0628 26 15.3078 26 13.504C26 8.69403 23.3675 4.50153 19.4837 2.2509ZM14.7144 20.8003C12.3906 18.9803 10.53 16.3153 10.1725 15.7872C10.1562 15.7709 10.1481 15.7465 10.1319 15.7303C10.1319 15.7303 10.1156 15.7059 10.1075 15.6897C10.0994 15.6734 10.0912 15.6653 10.0831 15.649C9.60375 14.8772 8.03563 12.1959 7.35313 9.40903C7.77563 8.43403 8.89688 6.5084 10.3675 6.2159C10.4081 6.23215 10.4406 6.25653 10.4731 6.27278C10.9363 6.5409 11.3588 7.03653 11.5863 7.6134C11.7975 8.14153 11.895 8.6534 11.8544 9.06778C11.8463 9.16528 11.83 9.21403 11.8381 9.21403C11.765 9.2709 11.6838 9.31965 11.5781 9.38465L10.6763 9.96965C10.5219 10.059 10.2863 10.2622 10.1644 10.6522C9.9125 11.4809 10.3431 12.7322 11.5375 14.5928C12.74 16.4372 13.7069 17.3472 14.5681 17.4528C14.9744 17.5015 15.2506 17.3715 15.3969 17.2578L16.2987 16.6728C16.4044 16.5997 16.4856 16.5428 16.5344 16.5103C16.5344 16.5103 16.5831 16.5103 16.705 16.5509C17.095 16.6809 17.5256 16.9815 17.9156 17.3878C18.3462 17.8265 18.6306 18.4115 18.6794 18.9478C18.6794 18.9884 18.6875 19.029 18.6875 19.0697C17.8344 20.3128 15.7463 20.7272 14.7144 20.8003Z" fill="#E0E0E0"/>
</g>
<defs>
<clipPath id="clip0">
<rect width="26" height="26" fill="white" transform="translate(0 0.504028)"/>
</clipPath>
</defs>
</svg>
